
{
  "header": {
    "reportVersion": 1,
    "event": "Allocation failed - JavaScript heap out of memory",
    "trigger": "FatalError",
    "filename": "report.20201012.145217.66446.0.001.json",
    "dumpEventTime": "2020-10-12T14:52:17Z",
    "dumpEventTimeStamp": "1602507137695",
    "processId": 66446,
    "cwd": "/Users/emirgluhbegovic/Desktop/Symbionix/Active/amaBills/amabills-api",
    "commandLine": [
      "/usr/local/bin/node",
      "/Users/emirgluhbegovic/Desktop/Symbionix/Active/amaBills/amabills-api/node_modules/.bin/ts-node-dev",
      "--no-notify",
      "src/"
    ],
    "nodejsVersion": "v12.13.1",
    "wordSize": 64,
    "arch": "x64",
    "platform": "darwin",
    "componentVersions": {
      "node": "12.13.1",
      "v8": "7.7.299.13-node.16",
      "uv": "1.33.1",
      "zlib": "1.2.11",
      "brotli": "1.0.7",
      "ares": "1.15.0",
      "modules": "72",
      "nghttp2": "1.39.2",
      "napi": "5",
      "llhttp": "1.1.4",
      "http_parser": "2.8.0",
      "openssl": "1.1.1d",
      "cldr": "35.1",
      "icu": "64.2",
      "tz": "2019c",
      "unicode": "12.1"
    },
    "release": {
      "name": "node",
      "lts": "Erbium",
      "headersUrl": "https://nodejs.org/download/release/v12.13.1/node-v12.13.1-headers.tar.gz",
      "sourceUrl": "https://nodejs.org/download/release/v12.13.1/node-v12.13.1.tar.gz"
    },
    "osName": "Darwin",
    "osRelease": "19.6.0",
    "osVersion": "Darwin Kernel Version 19.6.0: Thu Jun 18 20:49:00 PDT 2020; root:xnu-6153.141.1~1/RELEASE_X86_64",
    "osMachine": "x86_64",
    "cpus": [
      {
        "model": "Intel(R) Core(TM) i5-6267U CPU @ 2.90GHz",
        "speed": 2900,
        "user": 79255560,
        "nice": 0,
        "sys": 40797010,
        "idle": 281343000,
        "irq": 0
      },
      {
        "model": "Intel(R) Core(TM) i5-6267U CPU @ 2.90GHz",
        "speed": 2900,
        "user": 19790570,
        "nice": 0,
        "sys": 14516540,
        "idle": 367082590,
        "irq": 0
      },
      {
        "model": "Intel(R) Core(TM) i5-6267U CPU @ 2.90GHz",
        "speed": 2900,
        "user": 80434640,
        "nice": 0,
        "sys": 35752680,
        "idle": 285202420,
        "irq": 0
      },
      {
        "model": "Intel(R) Core(TM) i5-6267U CPU @ 2.90GHz",
        "speed": 2900,
        "user": 17515020,
        "nice": 0,
        "sys": 12141430,
        "idle": 371733230,
        "irq": 0
      }
    ],
    "networkInterfaces": [
      {
        "name": "lo0",
        "internal": true,
        "mac": "00:00:00:00:00:00",
        "address": "127.0.0.1",
        "netmask": "255.0.0.0",
        "family": "IPv4"
      },
      {
        "name": "lo0",
        "internal": true,
        "mac": "00:00:00:00:00:00",
        "address": "::1",
        "netmask": "ffff:ffff:ffff:ffff:ffff:ffff:ffff:ffff",
        "family": "IPv6",
        "scopeid": 0
      },
      {
        "name": "lo0",
        "internal": true,
        "mac": "00:00:00:00:00:00",
        "address": "fe80::1",
        "netmask": "ffff:ffff:ffff:ffff::",
        "family": "IPv6",
        "scopeid": 1
      },
      {
        "name": "en0",
        "internal": false,
        "mac": "78:4f:43:99:37:b9",
        "address": "fe80::c2:df1b:d5ca:117f",
        "netmask": "ffff:ffff:ffff:ffff::",
        "family": "IPv6",
        "scopeid": 5
      },
      {
        "name": "en0",
        "internal": false,
        "mac": "78:4f:43:99:37:b9",
        "address": "192.168.0.64",
        "netmask": "255.255.255.0",
        "family": "IPv4"
      },
      {
        "name": "en0",
        "internal": false,
        "mac": "78:4f:43:99:37:b9",
        "address": "fd01::8d:45f0:857c:35d7",
        "netmask": "ffff:ffff:ffff:ffff::",
        "family": "IPv6",
        "scopeid": 0
      },
      {
        "name": "en0",
        "internal": false,
        "mac": "78:4f:43:99:37:b9",
        "address": "fd01::58a8:1d5a:149f:75c1",
        "netmask": "ffff:ffff:ffff:ffff::",
        "family": "IPv6",
        "scopeid": 0
      },
      {
        "name": "awdl0",
        "internal": false,
        "mac": "6a:ea:62:55:64:5e",
        "address": "fe80::68ea:62ff:fe55:645e",
        "netmask": "ffff:ffff:ffff:ffff::",
        "family": "IPv6",
        "scopeid": 12
      },
      {
        "name": "llw0",
        "internal": false,
        "mac": "6a:ea:62:55:64:5e",
        "address": "fe80::68ea:62ff:fe55:645e",
        "netmask": "ffff:ffff:ffff:ffff::",
        "family": "IPv6",
        "scopeid": 13
      },
      {
        "name": "utun0",
        "internal": false,
        "mac": "00:00:00:00:00:00",
        "address": "fe80::4dfe:6e2:63cc:6c85",
        "netmask": "ffff:ffff:ffff:ffff::",
        "family": "IPv6",
        "scopeid": 14
      },
      {
        "name": "utun1",
        "internal": false,
        "mac": "00:00:00:00:00:00",
        "address": "fe80::27e0:909e:b2cd:c612",
        "netmask": "ffff:ffff:ffff:ffff::",
        "family": "IPv6",
        "scopeid": 15
      },
      {
        "name": "utun2",
        "internal": false,
        "mac": "00:00:00:00:00:00",
        "address": "fe80::ffe1:c0ad:730b:b5e7",
        "netmask": "ffff:ffff:ffff:ffff::",
        "family": "IPv6",
        "scopeid": 16
      },
      {
        "name": "utun3",
        "internal": false,
        "mac": "00:00:00:00:00:00",
        "address": "fe80::280:def0:8c55:c759",
        "netmask": "ffff:ffff:ffff:ffff::",
        "family": "IPv6",
        "scopeid": 17
      },
      {
        "name": "utun4",
        "internal": false,
        "mac": "00:00:00:00:00:00",
        "address": "fe80::35de:5986:8ece:67fa",
        "netmask": "ffff:ffff:ffff:ffff::",
        "family": "IPv6",
        "scopeid": 18
      },
      {
        "name": "utun5",
        "internal": false,
        "mac": "00:00:00:00:00:00",
        "address": "fe80::4ad6:cfc8:8e23:1f4",
        "netmask": "ffff:ffff:ffff:ffff::",
        "family": "IPv6",
        "scopeid": 19
      },
      {
        "name": "en5",
        "internal": false,
        "mac": "ac:de:48:00:11:22",
        "address": "fe80::aede:48ff:fe00:1122",
        "netmask": "ffff:ffff:ffff:ffff::",
        "family": "IPv6",
        "scopeid": 4
      }
    ],
    "host": "Emirs-MBP.dlinkrouter"
  },
  "javascriptStack": {
    "message": "No stack.",
    "stack": [
      "Unavailable."
    ]
  },
  "nativeStack": [
    {
      "pc": "0x000000010014db86",
      "symbol": "report::TriggerNodeReport(v8::Isolate*, node::Environment*, char const*, char const*, std::__1::basic_string<char, std::__1::char_traits<char>, std::__1::allocator<char> > const&, v8::Local<v8::String>) [/usr/local/bin/node]"
    },
    {
      "pc": "0x000000010007eb13",
      "symbol": "node::OnFatalError(char const*, char const*) [/usr/local/bin/node]"
    },
    {
      "pc": "0x0000000100176337",
      "symbol": "v8::Utils::ReportOOMFailure(v8::internal::Isolate*, char const*, bool) [/usr/local/bin/node]"
    },
    {
      "pc": "0x00000001001762d3",
      "symbol": "v8::internal::V8::FatalProcessOutOfMemory(v8::internal::Isolate*, char const*, bool) [/usr/local/bin/node]"
    },
    {
      "pc": "0x00000001002fa485",
      "symbol": "v8::internal::Heap::FatalProcessOutOfMemory(char const*) [/usr/local/bin/node]"
    },
    {
      "pc": "0x00000001002fbb54",
      "symbol": "v8::internal::Heap::RecomputeLimits(v8::internal::GarbageCollector) [/usr/local/bin/node]"
    },
    {
      "pc": "0x00000001002f8a27",
      "symbol": "v8::internal::Heap::PerformGarbageCollection(v8::internal::GarbageCollector, v8::GCCallbackFlags) [/usr/local/bin/node]"
    },
    {
      "pc": "0x00000001002f6a0d",
      "symbol": "v8::internal::Heap::CollectGarbage(v8::internal::AllocationSpace, v8::internal::GarbageCollectionReason, v8::GCCallbackFlags) [/usr/local/bin/node]"
    },
    {
      "pc": "0x0000000100302124",
      "symbol": "v8::internal::Heap::AllocateRawWithLightRetry(int, v8::internal::AllocationType, v8::internal::AllocationAlignment) [/usr/local/bin/node]"
    },
    {
      "pc": "0x000000010030219f",
      "symbol": "v8::internal::Heap::AllocateRawWithRetryOrFail(int, v8::internal::AllocationType, v8::internal::AllocationAlignment) [/usr/local/bin/node]"
    },
    {
      "pc": "0x00000001002ced97",
      "symbol": "v8::internal::Factory::NewFillerObject(int, bool, v8::internal::AllocationType) [/usr/local/bin/node]"
    },
    {
      "pc": "0x00000001005f83e5",
      "symbol": "v8::internal::Runtime_AllocateInYoungGeneration(int, unsigned long*, v8::internal::Isolate*) [/usr/local/bin/node]"
    },
    {
      "pc": "0x0000000100930c99",
      "symbol": "Builtins_CEntry_Return1_DontSaveFPRegs_ArgvOnStack_NoBuiltinExit [/usr/local/bin/node]"
    }
  ],
  "javascriptHeap": {
    "totalMemory": 2153271296,
    "totalCommittedMemory": 2151728432,
    "usedMemory": 2141833896,
    "availableMemory": 47178312,
    "memoryLimit": 2197815296,
    "heapSpaces": {
      "read_only_space": {
        "memorySize": 262144,
        "committedMemory": 32568,
        "capacity": 261872,
        "used": 32296,
        "available": 229576
      },
      "new_space": {
        "memorySize": 2097152,
        "committedMemory": 1366144,
        "capacity": 1047488,
        "used": 349112,
        "available": 698376
      },
      "old_space": {
        "memorySize": 2057940992,
        "committedMemory": 2057584776,
        "capacity": 2050662664,
        "used": 2050003792,
        "available": 658872
      },
      "code_space": {
        "memorySize": 4096000,
        "committedMemory": 3963008,
        "capacity": 3387040,
        "used": 3387040,
        "available": 0
      },
      "map_space": {
        "memorySize": 1052672,
        "committedMemory": 959600,
        "capacity": 645040,
        "used": 645040,
        "available": 0
      },
      "large_object_space": {
        "memorySize": 87773184,
        "committedMemory": 87773184,
        "capacity": 87413064,
        "used": 87413064,
        "available": 0
      },
      "code_large_object_space": {
        "memorySize": 49152,
        "committedMemory": 49152,
        "capacity": 3552,
        "used": 3552,
        "available": 0
      },
      "new_large_object_space": {
        "memorySize": 0,
        "committedMemory": 0,
        "capacity": 1047488,
        "used": 0,
        "available": 1047488
      }
    }
  },
  "resourceUsage": {
    "userCpuSeconds": 187.739,
    "kernelCpuSeconds": 34.3063,
    "cpuConsumptionPercent": 2.66914,
    "maxRss": 2177191903232,
    "pageFaults": {
      "IORequired": 25,
      "IONotRequired": 4603498
    },
    "fsActivity": {
      "reads": 0,
      "writes": 0
    }
  },
  "libuv": [
  ],
  "environmentVariables": {
    "npm_package_dependencies__feathersjs_express": "^4.5.8",
    "npm_package_scripts_db_migrate_latest": "npx sequelize-cli db:migrate",
    "npm_package_devDependencies_prettier": "^2.1.2",
    "npm_package_dependencies_sequelize_cli": "^6.2.0",
    "npm_package_dependencies_feathers_blob": "^2.2.0",
    "npm_package_scripts_db_init": "npx sequelize db:create && yarn clean && yarn compile && node lib/src",
    "TERM_PROGRAM": "Apple_Terminal",
    "npm_package_scripts_db_seed_remove": "npx sequelize-cli db:seed:undo --seed",
    "npm_package_scripts_db_seed_create": "npx sequelize-cli seed:generate --name",
    "NODE": "/usr/local/bin/node",
    "INIT_CWD": "/Users/emirgluhbegovic/Desktop/Symbionix/Active/amaBills/amabills-api",
    "ANDROID_HOME": "/Users/emirgluhbegovic/Library/Android/sdk",
    "npm_package_devDependencies_typescript": "^4.0.3",
    "npm_package_devDependencies__types_validator": "^13.1.0",
    "npm_package_dependencies_nodemailer": "^6.4.12",
    "npm_package_dependencies_moment": "^2.29.0",
    "npm_package_dependencies_axios": "^0.20.0",
    "npm_package_homepage": "https://www.symbionix.co/",
    "npm_config_version_git_tag": "true",
    "TERM": "xterm-256color",
    "SHELL": "/bin/bash",
    "npm_package_devDependencies_jest": "^26.4.2",
    "npm_package_devDependencies_shx": "^0.3.2",
    "npm_package_dependencies_serve_favicon": "^2.5.0",
    "TMPDIR": "/var/folders/v5/bn30c5ts5bgc10tb6dly5m3h0000gn/T/",
    "npm_package_devDependencies_tslint": "^6.1.3",
    "npm_package_dependencies_feathers_hooks_common": "^5.0.4",
    "CONDA_SHLVL": "1",
    "npm_package_dependencies_joi": "^17.2.1",
    "npm_package_scripts_eslint": "eslint src/. test/. --config .eslintrc.json",
    "npm_config_init_license": "MIT",
    "TERM_PROGRAM_VERSION": "433",
    "CONDA_PROMPT_MODIFIER": "(base) ",
    "npm_package_dependencies__feathersjs_configuration": "^4.5.8",
    "npm_package_dependencies_dauria": "^2.0.0",
    "npm_package_dependencies__feathersjs_socketio": "^4.5.8",
    "npm_package_scripts_dev": "ts-node-dev --no-notify src/",
    "npm_package_dependencies_uuid": "^8.3.0",
    "TERM_SESSION_ID": "95F4962D-08DE-4758-B587-ACD6EAC1FF6C",
    "npm_package_devDependencies__types_cron": "^1.7.2",
    "npm_package_devDependencies__types_jsonwebtoken": "^8.5.0",
    "npm_package_dependencies_helmet": "^4.1.1",
    "npm_package_private": "true",
    "npm_config_registry": "https://registry.yarnpkg.com",
    "npm_package_repository_url": "git+https://emir_gluhbegovic@bitbucket.org/symbionix/symbionix-sample-api.git",
    "npm_package_readmeFilename": "README.md",
    "npm_package_devDependencies_eslint_plugin_jsx_a11y": "^6.3.1",
    "USER": "emirgluhbegovic",
    "npm_package_devDependencies__types_nodemailer": "^6.4.0",
    "npm_package_devDependencies__types_mailparser": "^2.7.3",
    "npm_package_dependencies_numeral": "^2.0.6",
    "npm_package_dependencies__feathersjs_errors": "^4.5.8",
    "npm_package_description": "Symbionix API Boilerplate ",
    "npm_config_python": "/usr/bin/python",
    "npm_package_license": "ISC",
    "REACT_EDITOR": "code",
    "npm_package_devDependencies__types_mjml": "^4.0.4",
    "CONDA_EXE": "/Users/emirgluhbegovic/opt/anaconda3/bin/conda",
    "npm_package_dependencies_babel_cli": "6",
    "npm_package_dependencies_feathers_sequelize": "^6.2.0",
    "npm_package_dependencies_compression": "^1.7.4",
    "SSH_AUTH_SOCK": "/private/tmp/com.apple.launchd.J4nAWOfXut/Listeners",
    "npm_package_devDependencies__types_cors": "^2.8.7",
    "__CF_USER_TEXT_ENCODING": "0x1F5:0x0:0x0",
    "npm_package_devDependencies_eslint": "^7.10.0",
    "npm_package_devDependencies__types_jest": "^26.0.14",
    "npm_execpath": "/usr/local/Cellar/yarn/1.22.5/libexec/bin/yarn.js",
    "npm_package_devDependencies__typescript_eslint_eslint_plugin": "^4.3.0",
    "npm_package_dependencies_ramda": "^0.27.0",
    "npm_package_dependencies_cors": "^2.8.5",
    "npm_package_author_name": "Emir Gluhbegovic",
    "_CE_CONDA": "",
    "npm_package_devDependencies_eslint_plugin_prettier": "^3.1.4",
    "npm_package_devDependencies__typescript_eslint_parser": "^4.3.0",
    "npm_package_devDependencies__types_request": "^2.48.5",
    "npm_package_dependencies__sentry_node": "^5.24.2",
    "PATH": "/var/folders/v5/bn30c5ts5bgc10tb6dly5m3h0000gn/T/yarn--1602498817801-0.49555862189829725:/Users/emirgluhbegovic/Desktop/Symbionix/Active/amaBills/amabills-api/node_modules/.bin:/Users/emirgluhbegovic/.config/yarn/link/node_modules/.bin:/usr/local/libexec/lib/node_modules/npm/bin/node-gyp-bin:/usr/local/lib/node_modules/npm/bin/node-gyp-bin:/usr/local/bin/node_modules/npm/bin/node-gyp-bin:/Users/emirgluhbegovic/opt/anaconda3/bin:/Users/emirgluhbegovic/opt/anaconda3/condabin:/Library/Frameworks/Python.framework/Versions/3.6/bin:/usr/local/mysql/bin:/usr/local/bin:/usr/bin:/bin:/usr/sbin:/sbin:/Applications/Postgres.app/Contents/Versions/latest/bin:/Users/emirgluhbegovic/Library/Android/sdk/tools:/Users/emirgluhbegovic/Library/Android/sdk/platform-tools:/Users/emirgluhbegovic/Library/Android/sdk/build-tools/25.0.3:/Users/emirgluhbegovic/esp/xtensa-esp32-elf/bin:/Applications/Visual Studio Code.app/Contents/Resources/app/bin:/Applications/Visual Studio Code.app/Contents/Resources/app/bin",
    "npm_config_argv": "{\"remain\":[],\"cooked\":[\"run\",\"dev\"],\"original\":[\"dev\"]}",
    "npm_package_devDependencies__types_joi": "^14.3.4",
    "npm_package_scripts_db_migrate_rollback": "npx sequelize-cli db:migrate:undo",
    "npm_package_dependencies_sequelize": "^6.3.5",
    "npm_package_dependencies_multer": "^1.4.2",
    "_": "/Users/emirgluhbegovic/Desktop/Symbionix/Active/amaBills/amabills-api/node_modules/.bin/ts-node-dev",
    "CONDA_PREFIX": "/Users/emirgluhbegovic/opt/anaconda3",
    "npm_package_devDependencies_ts_jest": "^26.4.1",
    "npm_package_dependencies_soap": "^0.33.0",
    "npm_package_dependencies__feathersjs_feathers": "^4.5.8",
    "PWD": "/Users/emirgluhbegovic/Desktop/Symbionix/Active/amaBills/amabills-api",
    "npm_package_devDependencies_eslint_config_airbnb": "^18.2.0",
    "npm_package_devDependencies__types_bcryptjs": "^2.4.2",
    "npm_lifecycle_event": "dev",
    "npm_package_repository_type": "git",
    "npm_package_keywords_0": "feathers",
    "npm_package_name": "amabills-api",
    "npm_package_devDependencies_eslint_plugin_import": "^2.22.1",
    "npm_package_devDependencies__types_ramda": "^0.27.19",
    "npm_package_scripts_start": "yarn clean && yarn compile && node lib/src",
    "npm_config_version_commit_hooks": "true",
    "XPC_FLAGS": "0x0",
    "npm_package_dependencies__feathersjs_authentication": "^4.5.8",
    "npm_config_bin_links": "true",
    "npm_package_devDependencies__types_compression": "1.7.0",
    "npm_package_dependencies_cron": "^1.8.2",
    "npm_package_engines_node": "^12.0.0",
    "npm_package_devDependencies_eslint_config_prettier": "^6.12.0",
    "npm_package_devDependencies__types_multer": "^1.4.4",
    "npm_package_main": "src",
    "XPC_SERVICE_NAME": "0",
    "_CE_M": "",
    "npm_package_dependencies_winston": "^3.3.3",
    "npm_package_dependencies_nodemailer_mailgun_transport": "^2.0.1",
    "npm_package_version": "0.0.0",
    "npm_package_devDependencies__types_dinero_js": "^1.6.5",
    "HOME": "/Users/emirgluhbegovic",
    "SHLVL": "2",
    "npm_package_scripts_test": "NODE_ENV=test jest --forceExit",
    "npm_package_devDependencies__types_nodemailer_mailgun_transport": "^1.4.0",
    "npm_package_dependencies_babel_preset_react_app": "9.1.2",
    "npm_config_save_prefix": "^",
    "npm_config_strict_ssl": "true",
    "npm_package_devDependencies_husky": "^4.3.0",
    "npm_package_scripts_db_seed_all": "npx sequelize-cli db:seed:all",
    "npm_config_version_git_message": "v%s",
    "NPM_CONFIG_PYTHON": "/usr/bin/python",
    "npm_package_scripts_db_migrate_create": "npx sequelize-cli migration:generate --name ",
    "npm_package_scripts_compile": "tsc",
    "LOGNAME": "emirgluhbegovic",
    "IDF_PATH": "/Users/emirgluhbegovic/esp/esp-idf",
    "CONDA_PYTHON_EXE": "/Users/emirgluhbegovic/opt/anaconda3/bin/python",
    "YARN_WRAP_OUTPUT": "false",
    "npm_package_devDependencies__types_serve_favicon": "^2.5.0",
    "npm_package_devDependencies__types_sax": "^1.2.1",
    "PREFIX": "/usr/local",
    "npm_lifecycle_script": "ts-node-dev --no-notify src/",
    "LC_CTYPE": "UTF-8",
    "npm_package_devDependencies__types_numeral": "^0.0.28",
    "npm_package_dependencies_cloudinary": "^1.23.0",
    "npm_package_author_email": "emir@symbionix.co",
    "npm_package_dependencies_nodemailer_smtp_transport": "^2.7.4",
    "npm_package_dependencies_bcryptjs": "^2.4.3",
    "CONDA_DEFAULT_ENV": "base",
    "npm_package_dependencies_mjml": "^4.7.1",
    "npm_package_devDependencies__types_uuid": "^8.3.0",
    "npm_package_dependencies_fs_blob_store": "^5.2.1",
    "npm_package_dependencies_dinero_js": "^1.8.1",
    "npm_package_dependencies__feathersjs_authentication_local": "^4.5.8",
    "npm_config_version_git_sign": "",
    "npm_config_ignore_scripts": "",
    "npm_config_user_agent": "yarn/1.22.5 npm/? node/v12.13.1 darwin x64",
    "npm_package_devDependencies__types_node": "^14.11.2",
    "npm_package_devDependencies__types_helmet": "0.0.48",
    "npm_package_dependencies_pg": "7.14.0",
    "npm_package_dependencies_jsonwebtoken": "^8.5.1",
    "npm_package_dependencies__casl_ability": "^4.1.6",
    "npm_package_devDependencies__types_bluebird": "^3.5.32",
    "npm_package_dependencies__feathersjs_authentication_oauth": "^4.5.8",
    "npm_config_init_version": "1.0.0",
    "npm_config_ignore_optional": "",
    "npm_package_scripts_clean": "shx rm -rf lib",
    "npm_package_devDependencies_ts_node_dev": "^1.0.0-pre.63",
    "npm_package_devDependencies_nodemon": "^2.0.4",
    "npm_node_execpath": "/usr/local/bin/node",
    "npm_package_devDependencies_eslint_plugin_react": "^7.21.2",
    "npm_package_dependencies_ejs": "^3.1.5",
    "npm_config_version_tag_prefix": "v"
  },
  "userLimits": {
    "core_file_size_blocks": {
      "soft": 0,
      "hard": "unlimited"
    },
    "data_seg_size_kbytes": {
      "soft": "unlimited",
      "hard": "unlimited"
    },
    "file_size_blocks": {
      "soft": "unlimited",
      "hard": "unlimited"
    },
    "max_locked_memory_bytes": {
      "soft": "unlimited",
      "hard": "unlimited"
    },
    "max_memory_size_kbytes": {
      "soft": "unlimited",
      "hard": "unlimited"
    },
    "open_files": {
      "soft": 10240,
      "hard": "unlimited"
    },
    "stack_size_bytes": {
      "soft": 8388608,
      "hard": 67104768
    },
    "cpu_time_seconds": {
      "soft": "unlimited",
      "hard": "unlimited"
    },
    "max_user_processes": {
      "soft": 1392,
      "hard": 2088
    },
    "virtual_memory_kbytes": {
      "soft": "unlimited",
      "hard": "unlimited"
    }
  },
  "sharedObjects": [
    "/usr/local/bin/node",
    "/System/Library/Frameworks/CoreFoundation.framework/Versions/A/CoreFoundation",
    "/usr/lib/libSystem.B.dylib",
    "/usr/lib/libc++.1.dylib",
    "/usr/lib/libobjc.A.dylib",
    "/usr/lib/libfakelink.dylib",
    "/usr/lib/libDiagnosticMessagesClient.dylib",
    "/usr/lib/libicucore.A.dylib",
    "/usr/lib/libz.1.dylib",
    "/usr/lib/libc++abi.dylib",
    "/usr/lib/system/libcache.dylib",
    "/usr/lib/system/libcommonCrypto.dylib",
    "/usr/lib/system/libcompiler_rt.dylib",
    "/usr/lib/system/libcopyfile.dylib",
    "/usr/lib/system/libcorecrypto.dylib",
    "/usr/lib/system/libdispatch.dylib",
    "/usr/lib/system/libdyld.dylib",
    "/usr/lib/system/libkeymgr.dylib",
    "/usr/lib/system/liblaunch.dylib",
    "/usr/lib/system/libmacho.dylib",
    "/usr/lib/system/libquarantine.dylib",
    "/usr/lib/system/libremovefile.dylib",
    "/usr/lib/system/libsystem_asl.dylib",
    "/usr/lib/system/libsystem_blocks.dylib",
    "/usr/lib/system/libsystem_c.dylib",
    "/usr/lib/system/libsystem_configuration.dylib",
    "/usr/lib/system/libsystem_coreservices.dylib",
    "/usr/lib/system/libsystem_darwin.dylib",
    "/usr/lib/system/libsystem_dnssd.dylib",
    "/usr/lib/system/libsystem_featureflags.dylib",
    "/usr/lib/system/libsystem_info.dylib",
    "/usr/lib/system/libsystem_m.dylib",
    "/usr/lib/system/libsystem_malloc.dylib",
    "/usr/lib/system/libsystem_networkextension.dylib",
    "/usr/lib/system/libsystem_notify.dylib",
    "/usr/lib/system/libsystem_sandbox.dylib",
    "/usr/lib/system/libsystem_secinit.dylib",
    "/usr/lib/system/libsystem_kernel.dylib",
    "/usr/lib/system/libsystem_platform.dylib",
    "/usr/lib/system/libsystem_pthread.dylib",
    "/usr/lib/system/libsystem_symptoms.dylib",
    "/usr/lib/system/libsystem_trace.dylib",
    "/usr/lib/system/libunwind.dylib",
    "/usr/lib/system/libxpc.dylib",
    "/System/Library/Frameworks/ApplicationServices.framework/Versions/A/ApplicationServices",
    "/System/Library/Frameworks/CoreGraphics.framework/Versions/A/CoreGraphics",
    "/System/Library/Frameworks/CoreText.framework/Versions/A/CoreText",
    "/System/Library/Frameworks/ImageIO.framework/Versions/A/ImageIO",
    "/System/Library/Frameworks/ColorSync.framework/Versions/A/ColorSync",
    "/System/Library/Frameworks/ApplicationServices.framework/Versions/A/Frameworks/ATS.framework/Versions/A/ATS",
    "/System/Library/Frameworks/ApplicationServices.framework/Versions/A/Frameworks/ColorSyncLegacy.framework/Versions/A/ColorSyncLegacy",
    "/System/Library/Frameworks/CoreServices.framework/Versions/A/CoreServices",
    "/System/Library/Frameworks/ApplicationServices.framework/Versions/A/Frameworks/HIServices.framework/Versions/A/HIServices",
    "/System/Library/Frameworks/ApplicationServices.framework/Versions/A/Frameworks/LangAnalysis.framework/Versions/A/LangAnalysis",
    "/System/Library/Frameworks/ApplicationServices.framework/Versions/A/Frameworks/PrintCore.framework/Versions/A/PrintCore",
    "/System/Library/Frameworks/ApplicationServices.framework/Versions/A/Frameworks/QD.framework/Versions/A/QD",
    "/System/Library/Frameworks/ApplicationServices.framework/Versions/A/Frameworks/SpeechSynthesis.framework/Versions/A/SpeechSynthesis",
    "/System/Library/PrivateFrameworks/SkyLight.framework/Versions/A/SkyLight",
    "/System/Library/PrivateFrameworks/FontServices.framework/libFontParser.dylib",
    "/System/Library/Frameworks/Accelerate.framework/Versions/A/Accelerate",
    "/System/Library/Frameworks/IOSurface.framework/Versions/A/IOSurface",
    "/usr/lib/libxml2.2.dylib",
    "/System/Library/Frameworks/CFNetwork.framework/Versions/A/CFNetwork",
    "/System/Library/Frameworks/Foundation.framework/Versions/C/Foundation",
    "/System/Library/PrivateFrameworks/WatchdogClient.framework/Versions/A/WatchdogClient",
    "/usr/lib/libcompression.dylib",
    "/System/Library/Frameworks/SystemConfiguration.framework/Versions/A/SystemConfiguration",
    "/System/Library/Frameworks/CoreDisplay.framework/Versions/A/CoreDisplay",
    "/System/Library/PrivateFrameworks/IOAccelerator.framework/Versions/A/IOAccelerator",
    "/System/Library/Frameworks/IOKit.framework/Versions/A/IOKit",
    "/System/Library/Frameworks/Metal.framework/Versions/A/Metal",
    "/System/Library/Frameworks/MetalPerformanceShaders.framework/Versions/A/MetalPerformanceShaders",
    "/System/Library/PrivateFrameworks/MultitouchSupport.framework/Versions/A/MultitouchSupport",
    "/System/Library/Frameworks/Security.framework/Versions/A/Security",
    "/System/Library/Frameworks/QuartzCore.framework/Versions/A/QuartzCore",
    "/usr/lib/libbsm.0.dylib",
    "/usr/lib/liblzma.5.dylib",
    "/usr/lib/libauto.dylib",
    "/System/Library/Frameworks/DiskArbitration.framework/Versions/A/DiskArbitration",
    "/usr/lib/libarchive.2.dylib",
    "/usr/lib/liblangid.dylib",
    "/usr/lib/libCRFSuite.dylib",
    "/usr/lib/libenergytrace.dylib",
    "/usr/lib/system/libkxld.dylib",
    "/System/Library/PrivateFrameworks/AppleFSCompression.framework/Versions/A/AppleFSCompression",
    "/usr/lib/libcoretls.dylib",
    "/usr/lib/libcoretls_cfhelpers.dylib",
    "/usr/lib/libpam.2.dylib",
    "/usr/lib/libsqlite3.dylib",
    "/usr/lib/libxar.1.dylib",
    "/usr/lib/libbz2.1.0.dylib",
    "/usr/lib/libiconv.2.dylib",
    "/usr/lib/libcharset.1.dylib",
    "/usr/lib/libnetwork.dylib",
    "/usr/lib/libpcap.A.dylib",
    "/usr/lib/libapple_nghttp2.dylib",
    "/System/Library/Frameworks/CoreServices.framework/Versions/A/Frameworks/FSEvents.framework/Versions/A/FSEvents",
    "/System/Library/Frameworks/CoreServices.framework/Versions/A/Frameworks/CarbonCore.framework/Versions/A/CarbonCore",
    "/System/Library/Frameworks/CoreServices.framework/Versions/A/Frameworks/Metadata.framework/Versions/A/Metadata",
    "/System/Library/Frameworks/CoreServices.framework/Versions/A/Frameworks/OSServices.framework/Versions/A/OSServices",
    "/System/Library/Frameworks/CoreServices.framework/Versions/A/Frameworks/SearchKit.framework/Versions/A/SearchKit",
    "/System/Library/Frameworks/CoreServices.framework/Versions/A/Frameworks/AE.framework/Versions/A/AE",
    "/System/Library/Frameworks/CoreServices.framework/Versions/A/Frameworks/LaunchServices.framework/Versions/A/LaunchServices",
    "/System/Library/Frameworks/CoreServices.framework/Versions/A/Frameworks/DictionaryServices.framework/Versions/A/DictionaryServices",
    "/System/Library/Frameworks/CoreServices.framework/Versions/A/Frameworks/SharedFileList.framework/Versions/A/SharedFileList",
    "/System/Library/Frameworks/NetFS.framework/Versions/A/NetFS",
    "/System/Library/PrivateFrameworks/NetAuth.framework/Versions/A/NetAuth",
    "/System/Library/PrivateFrameworks/login.framework/Versions/A/Frameworks/loginsupport.framework/Versions/A/loginsupport",
    "/System/Library/PrivateFrameworks/TCC.framework/Versions/A/TCC",
    "/System/Library/PrivateFrameworks/CoreNLP.framework/Versions/A/CoreNLP",
    "/System/Library/PrivateFrameworks/MetadataUtilities.framework/Versions/A/MetadataUtilities",
    "/usr/lib/libmecabra.dylib",
    "/usr/lib/libmecab.dylib",
    "/usr/lib/libgermantok.dylib",
    "/usr/lib/libThaiTokenizer.dylib",
    "/usr/lib/libChineseTokenizer.dylib",
    "/System/Library/Frameworks/Accelerate.framework/Versions/A/Frameworks/vImage.framework/Versions/A/vImage",
    "/System/Library/Frameworks/Accelerate.framework/Versions/A/Frameworks/vecLib.framework/Versions/A/vecLib",
    "/System/Library/Frameworks/Accelerate.framework/Versions/A/Frameworks/vecLib.framework/Versions/A/libvMisc.dylib",
    "/System/Library/Frameworks/Accelerate.framework/Versions/A/Frameworks/vecLib.framework/Versions/A/libvDSP.dylib",
    "/System/Library/Frameworks/Accelerate.framework/Versions/A/Frameworks/vecLib.framework/Versions/A/libBLAS.dylib",
    "/System/Library/Frameworks/Accelerate.framework/Versions/A/Frameworks/vecLib.framework/Versions/A/libLAPACK.dylib",
    "/System/Library/Frameworks/Accelerate.framework/Versions/A/Frameworks/vecLib.framework/Versions/A/libLinearAlgebra.dylib",
    "/System/Library/Frameworks/Accelerate.framework/Versions/A/Frameworks/vecLib.framework/Versions/A/libSparseBLAS.dylib",
    "/System/Library/Frameworks/Accelerate.framework/Versions/A/Frameworks/vecLib.framework/Versions/A/libQuadrature.dylib",
    "/System/Library/Frameworks/Accelerate.framework/Versions/A/Frameworks/vecLib.framework/Versions/A/libBNNS.dylib",
    "/System/Library/Frameworks/Accelerate.framework/Versions/A/Frameworks/vecLib.framework/Versions/A/libSparse.dylib",
    "/System/Library/PrivateFrameworks/LanguageModeling.framework/Versions/A/LanguageModeling",
    "/System/Library/PrivateFrameworks/CoreEmoji.framework/Versions/A/CoreEmoji",
    "/System/Library/PrivateFrameworks/LinguisticData.framework/Versions/A/LinguisticData",
    "/System/Library/PrivateFrameworks/Lexicon.framework/Versions/A/Lexicon",
    "/usr/lib/libcmph.dylib",
    "/System/Library/Frameworks/OpenDirectory.framework/Versions/A/Frameworks/CFOpenDirectory.framework/Versions/A/CFOpenDirectory",
    "/System/Library/Frameworks/OpenDirectory.framework/Versions/A/OpenDirectory",
    "/System/Library/PrivateFrameworks/APFS.framework/Versions/A/APFS",
    "/System/Library/Frameworks/SecurityFoundation.framework/Versions/A/SecurityFoundation",
    "/usr/lib/libutil.dylib",
    "/System/Library/PrivateFrameworks/CoreServicesStore.framework/Versions/A/CoreServicesStore",
    "/System/Library/Frameworks/ServiceManagement.framework/Versions/A/ServiceManagement",
    "/System/Library/PrivateFrameworks/BackgroundTaskManagement.framework/Versions/A/BackgroundTaskManagement",
    "/usr/lib/libxslt.1.dylib",
    "/System/Library/PrivateFrameworks/GPUWrangler.framework/Versions/A/GPUWrangler",
    "/System/Library/PrivateFrameworks/IOPresentment.framework/Versions/A/IOPresentment",
    "/System/Library/PrivateFrameworks/DSExternalDisplay.framework/Versions/A/DSExternalDisplay",
    "/System/Library/Frameworks/OpenGL.framework/Versions/A/Libraries/libCoreFSCache.dylib",
    "/System/Library/Frameworks/MetalPerformanceShaders.framework/Frameworks/MPSCore.framework/Versions/A/MPSCore",
    "/System/Library/Frameworks/MetalPerformanceShaders.framework/Frameworks/MPSImage.framework/Versions/A/MPSImage",
    "/System/Library/Frameworks/MetalPerformanceShaders.framework/Frameworks/MPSNeuralNetwork.framework/Versions/A/MPSNeuralNetwork",
    "/System/Library/Frameworks/MetalPerformanceShaders.framework/Frameworks/MPSMatrix.framework/Versions/A/MPSMatrix",
    "/System/Library/Frameworks/MetalPerformanceShaders.framework/Frameworks/MPSRayIntersector.framework/Versions/A/MPSRayIntersector",
    "/System/Library/Frameworks/MetalPerformanceShaders.framework/Frameworks/MPSNDArray.framework/Versions/A/MPSNDArray",
    "/System/Library/PrivateFrameworks/MetalTools.framework/Versions/A/MetalTools",
    "/System/Library/PrivateFrameworks/AggregateDictionary.framework/Versions/A/AggregateDictionary",
    "/System/Library/PrivateFrameworks/CoreAnalytics.framework/Versions/A/CoreAnalytics",
    "/System/Library/PrivateFrameworks/AppleSauce.framework/Versions/A/AppleSauce",
    "/usr/lib/libMobileGestalt.dylib",
    "/System/Library/PrivateFrameworks/AppleSystemInfo.framework/Versions/A/AppleSystemInfo",
    "/usr/lib/libIOReport.dylib",
    "/System/Library/Frameworks/CoreImage.framework/Versions/A/CoreImage",
    "/System/Library/Frameworks/CoreVideo.framework/Versions/A/CoreVideo",
    "/System/Library/Frameworks/OpenGL.framework/Versions/A/OpenGL",
    "/System/Library/PrivateFrameworks/GraphVisualizer.framework/Versions/A/GraphVisualizer",
    "/System/Library/PrivateFrameworks/FaceCore.framework/Versions/A/FaceCore",
    "/System/Library/Frameworks/OpenCL.framework/Versions/A/OpenCL",
    "/usr/lib/libFosl_dynamic.dylib",
    "/System/Library/PrivateFrameworks/OTSVG.framework/Versions/A/OTSVG",
    "/System/Library/Frameworks/ApplicationServices.framework/Versions/A/Frameworks/ATS.framework/Versions/A/Resources/libFontRegistry.dylib",
    "/usr/lib/libate.dylib",
    "/System/Library/Frameworks/ImageIO.framework/Versions/A/Resources/libJPEG.dylib",
    "/System/Library/Frameworks/ImageIO.framework/Versions/A/Resources/libTIFF.dylib",
    "/System/Library/Frameworks/ImageIO.framework/Versions/A/Resources/libPng.dylib",
    "/System/Library/Frameworks/ImageIO.framework/Versions/A/Resources/libGIF.dylib",
    "/System/Library/Frameworks/ImageIO.framework/Versions/A/Resources/libJP2.dylib",
    "/System/Library/Frameworks/ImageIO.framework/Versions/A/Resources/libRadiance.dylib",
    "/usr/lib/libexpat.1.dylib",
    "/System/Library/PrivateFrameworks/AppleJPEG.framework/Versions/A/AppleJPEG",
    "/System/Library/PrivateFrameworks/FontServices.framework/libhvf.dylib",
    "/System/Library/Frameworks/OpenGL.framework/Versions/A/Libraries/libGFXShared.dylib",
    "/System/Library/Frameworks/OpenGL.framework/Versions/A/Libraries/libGLU.dylib",
    "/System/Library/Frameworks/OpenGL.framework/Versions/A/Libraries/libGL.dylib",
    "/System/Library/Frameworks/OpenGL.framework/Versions/A/Libraries/libGLImage.dylib",
    "/System/Library/Frameworks/OpenGL.framework/Versions/A/Libraries/libCVMSPluginSupport.dylib",
    "/System/Library/Frameworks/OpenGL.framework/Versions/A/Libraries/libCoreVMClient.dylib",
    "/usr/lib/libncurses.5.4.dylib",
    "/System/Library/Frameworks/ApplicationServices.framework/Versions/A/Frameworks/ATSUI.framework/Versions/A/ATSUI",
    "/usr/lib/libcups.2.dylib",
    "/System/Library/Frameworks/Kerberos.framework/Versions/A/Kerberos",
    "/System/Library/Frameworks/GSS.framework/Versions/A/GSS",
    "/usr/lib/libresolv.9.dylib",
    "/System/Library/PrivateFrameworks/Heimdal.framework/Versions/A/Heimdal",
    "/System/Library/Frameworks/Kerberos.framework/Versions/A/Libraries/libHeimdalProxy.dylib",
    "/usr/lib/libheimdal-asn1.dylib",
    "/System/Library/PrivateFrameworks/CommonAuth.framework/Versions/A/CommonAuth",
    "/System/Library/Frameworks/CoreAudio.framework/Versions/A/CoreAudio",
    "/System/Library/Frameworks/AudioToolbox.framework/Versions/A/AudioToolbox",
    "/System/Library/PrivateFrameworks/AssertionServices.framework/Versions/A/AssertionServices",
    "/System/Library/PrivateFrameworks/AudioToolboxCore.framework/Versions/A/AudioToolboxCore",
    "/System/Library/PrivateFrameworks/caulk.framework/Versions/A/caulk",
    "/System/Library/PrivateFrameworks/BaseBoard.framework/Versions/A/BaseBoard",
    "/System/Library/PrivateFrameworks/RunningBoardServices.framework/Versions/A/RunningBoardServices",
    "/System/Library/PrivateFrameworks/PersistentConnection.framework/Versions/A/PersistentConnection",
    "/System/Library/PrivateFrameworks/ProtocolBuffer.framework/Versions/A/ProtocolBuffer",
    "/System/Library/PrivateFrameworks/CommonUtilities.framework/Versions/A/CommonUtilities",
    "/System/Library/PrivateFrameworks/Bom.framework/Versions/A/Bom",
    "/usr/lib/libAudioToolboxUtility.dylib",
    "/Users/emirgluhbegovic/Desktop/Symbionix/Active/amaBills/amabills-api/node_modules/fsevents/fsevents.node"
  ]
}